{
  "meta":{
    "next":"/?page=2&perPage=10",
    "page":1,
    "perPage":10,
    "previous":null,
    "total":3489672
  },
  "objects":[
    {
      "DATA_GERACAO":"25/11/2016",
      "HORA_GERACAO":"18:23:08",
      "ANO_ELEICAO":"2000",
      "NUM_TURNO":"1",
      "DESCRICAO_ELEICAO":"ELEICOES 2000",
      "SIGLA_UF":"BA",
      "SIGLA_UE":"39900",
      "DESCRICAO_UE":"SITIO DO QUINTO",
      "CODIGO_CARGO":"13",
      "DESCRICAO_CARGO":"VEREADOR",
      "NOME_CANDIDATO":"SUPRIANO BISPO DA MOTA",
      "SEQUENCIAL_CANDIDATO":"313",
      "NUMERO_CANDIDATO":"25617.0",
      "CPF_CANDIDATO":"24480002553",
      "NOME_URNA_CANDIDATO":"SUPRIANO",
      "COD_SITUACAO_CANDIDATURA":"6",
      "DES_SITUACAO_CANDIDATURA":"HOMOLOGAÇÃO DE RENÚNCIA",
      "NUMERO_PARTIDO":"25",
      "SIGLA_PARTIDO":"PFL",
      "NOME_PARTIDO":"PARTIDO DA FRENTE LIBERAL",
      "CODIGO_LEGENDA":"2.0",
      "SIGLA_LEGENDA":"#NE#",
      "COMPOSICAO_LEGENDA":"PFL / PL ",
      "NOME_LEGENDA":"A VOLTA DA LIBERDADE",
      "CODIGO_OCUPACAO":"601",
      "DESCRICAO_OCUPACAO":"TRABALHADOR AGRÍCOLA",
      "DATA_NASCIMENTO":"10011954.0",
      "NUM_TITULO_ELEITORAL_CANDIDATO":"012837040507",
      "IDADE_DATA_ELEICAO":"-1",
      "CODIGO_SEXO":"2",
      "DESCRICAO_SEXO":"MASCULINO",
      "COD_GRAU_INSTRUCAO":"2",
      "DESCRICAO_GRAU_INSTRUCAO":"LÊ E ESCREVE",
      "CODIGO_ESTADO_CIVIL":"3",
      "DESCRICAO_ESTADO_CIVIL":"CASADO(A)",
      "CODIGO_NACIONALIDADE":"1",
      "DESCRICAO_NACIONALIDADE":"BRASILEIRA",
      "SIGLA_UF_NASCIMENTO":"BA",
      "CODIGO_MUNICIPIO_NASCIMENTO":"-1",
      "NOME_MUNICIPIO_NASCIMENTO":"ANTAS",
      "DESPESA_MAX_CAMPANHA":"-1",
      "COD_SIT_TOT_TURNO":"",
      "DESC_SIT_TOT_TURNO":""
    },
    {
      "DATA_GERACAO":"25/11/2016",
      "HORA_GERACAO":"18:23:08",
      "ANO_ELEICAO":"2000",
      "NUM_TURNO":"1",
      "DESCRICAO_ELEICAO":"ELEICOES 2000",
      "SIGLA_UF":"BA",
      "SIGLA_UE":"39985",
      "DESCRICAO_UE":"SOBRADINHO",
      "CODIGO_CARGO":"11",
      "DESCRICAO_CARGO":"PREFEITO",
      "NOME_CANDIDATO":"IVAN LIVIO BORBA DE CARVALHO",
      "SEQUENCIAL_CANDIDATO":"261",
      "NUMERO_CANDIDATO":"12.0",
      "CPF_CANDIDATO":"01391984404",
      "NOME_URNA_CANDIDATO":"IVAN BORBA",
      "COD_SITUACAO_CANDIDATURA":"6",
      "DES_SITUACAO_CANDIDATURA":"HOMOLOGAÇÃO DE RENÚNCIA",
      "NUMERO_PARTIDO":"12",
      "SIGLA_PARTIDO":"PDT",
      "NOME_PARTIDO":"PARTIDO DEMOCRÁTICO TRABALHISTA",
      "CODIGO_LEGENDA":"4.0",
      "SIGLA_LEGENDA":"#NE#",
      "COMPOSICAO_LEGENDA":"PDT / PT / PCB / PC do B / PPS / PST / PSC ",
      "NOME_LEGENDA":"SOBRADINHO DE TODOS NÓS",
      "CODIGO_OCUPACAO":"999",
      "DESCRICAO_OCUPACAO":"OUTROS",
      "DATA_NASCIMENTO":"5061938.0",
      "NUM_TITULO_ELEITORAL_CANDIDATO":"028519460590",
      "IDADE_DATA_ELEICAO":"-1",
      "CODIGO_SEXO":"2",
      "DESCRICAO_SEXO":"MASCULINO",
      "COD_GRAU_INSTRUCAO":"8",
      "DESCRICAO_GRAU_INSTRUCAO":"SUPERIOR COMPLETO",
      "CODIGO_ESTADO_CIVIL":"3",
      "DESCRICAO_ESTADO_CIVIL":"CASADO(A)",
      "CODIGO_NACIONALIDADE":"1",
      "DESCRICAO_NACIONALIDADE":"BRASILEIRA",
      "SIGLA_UF_NASCIMENTO":"PB",
      "CODIGO_MUNICIPIO_NASCIMENTO":"-1",
      "NOME_MUNICIPIO_NASCIMENTO":"ANTENOR NAVARRO",
      "DESPESA_MAX_CAMPANHA":"-1",
      "COD_SIT_TOT_TURNO":"",
      "DESC_SIT_TOT_TURNO":""
    },
    {
      "DATA_GERACAO":"25/11/2016",
      "HORA_GERACAO":"18:23:08",
      "ANO_ELEICAO":"2000",
      "NUM_TURNO":"1",
      "DESCRICAO_ELEICAO":"ELEICOES 2000",
      "SIGLA_UF":"BA",
      "SIGLA_UE":"39985",
      "DESCRICAO_UE":"SOBRADINHO",
      "CODIGO_CARGO":"11",
      "DESCRICAO_CARGO":"PREFEITO",
      "NOME_CANDIDATO":"APARECIDA ARAÚJO SOARES",
      "SEQUENCIAL_CANDIDATO":"478",
      "NUMERO_CANDIDATO":"13.0",
      "CPF_CANDIDATO":"33345295504",
      "NOME_URNA_CANDIDATO":"CIDA SOARES",
      "COD_SITUACAO_CANDIDATURA":"2",
      "DES_SITUACAO_CANDIDATURA":"DEFERIDO",
      "NUMERO_PARTIDO":"13",
      "SIGLA_PARTIDO":"PT",
      "NOME_PARTIDO":"PARTIDO DOS TRABALHADORES",
      "CODIGO_LEGENDA":"4.0",
      "SIGLA_LEGENDA":"#NE#",
      "COMPOSICAO_LEGENDA":"PDT / PT / PCB / PC do B / PPS / PST / PSC ",
      "NOME_LEGENDA":"SOBRADINHO DE TODOS NÓS",
      "CODIGO_OCUPACAO":"143",
      "DESCRICAO_OCUPACAO":"PROFESSOR DE ENSINO DE PRIMEIRO E SEGUNDO GRAUS",
      "DATA_NASCIMENTO":"21111964.0",
      "NUM_TITULO_ELEITORAL_CANDIDATO":"055956100566",
      "IDADE_DATA_ELEICAO":"-1",
      "CODIGO_SEXO":"4",
      "DESCRICAO_SEXO":"FEMININO",
      "COD_GRAU_INSTRUCAO":"6",
      "DESCRICAO_GRAU_INSTRUCAO":"2º GRAU COMPLETO",
      "CODIGO_ESTADO_CIVIL":"3",
      "DESCRICAO_ESTADO_CIVIL":"CASADO(A)",
      "CODIGO_NACIONALIDADE":"1",
      "DESCRICAO_NACIONALIDADE":"BRASILEIRA",
      "SIGLA_UF_NASCIMENTO":"SP",
      "CODIGO_MUNICIPIO_NASCIMENTO":"-1",
      "NOME_MUNICIPIO_NASCIMENTO":"SÃO PAULO",
      "DESPESA_MAX_CAMPANHA":"-1",
      "COD_SIT_TOT_TURNO":"4.0",
      "DESC_SIT_TOT_TURNO":"NÃO ELEITO"
    },
    {
      "DATA_GERACAO":"25/11/2016",
      "HORA_GERACAO":"18:23:08",
      "ANO_ELEICAO":"2000",
      "NUM_TURNO":"1",
      "DESCRICAO_ELEICAO":"ELEICOES 2000",
      "SIGLA_UF":"BA",
      "SIGLA_UE":"39985",
      "DESCRICAO_UE":"SOBRADINHO",
      "CODIGO_CARGO":"11",
      "DESCRICAO_CARGO":"PREFEITO",
      "NOME_CANDIDATO":"GENILSON BARBOSA DA SILVA",
      "SEQUENCIAL_CANDIDATO":"285",
      "NUMERO_CANDIDATO":"25.0",
      "CPF_CANDIDATO":"16035305504",
      "NOME_URNA_CANDIDATO":"GENILSON",
      "COD_SITUACAO_CANDIDATURA":"2",
      "DES_SITUACAO_CANDIDATURA":"DEFERIDO",
      "NUMERO_PARTIDO":"25",
      "SIGLA_PARTIDO":"PFL",
      "NOME_PARTIDO":"PARTIDO DA FRENTE LIBERAL",
      "CODIGO_LEGENDA":"5.0",
      "SIGLA_LEGENDA":"#NE#",
      "COMPOSICAO_LEGENDA":"PFL / PSDC ",
      "NOME_LEGENDA":"LUTAR PARA TRANSFORMAR",
      "CODIGO_OCUPACAO":"101",
      "DESCRICAO_OCUPACAO":"ENGENHEIRO",
      "DATA_NASCIMENTO":"12121957.0",
      "NUM_TITULO_ELEITORAL_CANDIDATO":"013273690582",
      "IDADE_DATA_ELEICAO":"-1",
      "CODIGO_SEXO":"2",
      "DESCRICAO_SEXO":"MASCULINO",
      "COD_GRAU_INSTRUCAO":"8",
      "DESCRICAO_GRAU_INSTRUCAO":"SUPERIOR COMPLETO",
      "CODIGO_ESTADO_CIVIL":"1",
      "DESCRICAO_ESTADO_CIVIL":"SOLTEIRO(A)",
      "CODIGO_NACIONALIDADE":"1",
      "DESCRICAO_NACIONALIDADE":"BRASILEIRA",
      "SIGLA_UF_NASCIMENTO":"BA",
      "CODIGO_MUNICIPIO_NASCIMENTO":"-1",
      "NOME_MUNICIPIO_NASCIMENTO":"JUAZEIRO",
      "DESPESA_MAX_CAMPANHA":"-1",
      "COD_SIT_TOT_TURNO":"4.0",
      "DESC_SIT_TOT_TURNO":"NÃO ELEITO"
    },
    {
      "DATA_GERACAO":"25/11/2016",
      "HORA_GERACAO":"18:23:08",
      "ANO_ELEICAO":"2000",
      "NUM_TURNO":"1",
      "DESCRICAO_ELEICAO":"ELEICOES 2000",
      "SIGLA_UF":"BA",
      "SIGLA_UE":"39985",
      "DESCRICAO_UE":"SOBRADINHO",
      "CODIGO_CARGO":"13",
      "DESCRICAO_CARGO":"VEREADOR",
      "NOME_CANDIDATO":"JAIR FERNANDES DOS SANTOS",
      "SEQUENCIAL_CANDIDATO":"166",
      "NUMERO_CANDIDATO":"11601.0",
      "CPF_CANDIDATO":"50230468500",
      "NOME_URNA_CANDIDATO":"JAIR",
      "COD_SITUACAO_CANDIDATURA":"2",
      "DES_SITUACAO_CANDIDATURA":"DEFERIDO",
      "NUMERO_PARTIDO":"11",
      "SIGLA_PARTIDO":"PPB",
      "NOME_PARTIDO":"PARTIDO PROGRESSISTA BRASILEIRO",
      "CODIGO_LEGENDA":"1.0",
      "SIGLA_LEGENDA":"#NE#",
      "COMPOSICAO_LEGENDA":"PPB / PRP / PMN / PSB ",
      "NOME_LEGENDA":"UNINDO FORÇAS",
      "CODIGO_OCUPACAO":"511",
      "DESCRICAO_OCUPACAO":"CABELEIREIRO, BARBEIRO, MANICURE, MAQUILADOR, ESTETICISTA E MASSAGISTA",
      "DATA_NASCIMENTO":"11091969.0",
      "NUM_TITULO_ELEITORAL_CANDIDATO":"054934620515",
      "IDADE_DATA_ELEICAO":"-1",
      "CODIGO_SEXO":"2",
      "DESCRICAO_SEXO":"MASCULINO",
      "COD_GRAU_INSTRUCAO":"6",
      "DESCRICAO_GRAU_INSTRUCAO":"2º GRAU COMPLETO",
      "CODIGO_ESTADO_CIVIL":"3",
      "DESCRICAO_ESTADO_CIVIL":"CASADO(A)",
      "CODIGO_NACIONALIDADE":"1",
      "DESCRICAO_NACIONALIDADE":"BRASILEIRA",
      "SIGLA_UF_NASCIMENTO":"BA",
      "CODIGO_MUNICIPIO_NASCIMENTO":"-1",
      "NOME_MUNICIPIO_NASCIMENTO":"JUAZEIRO",
      "DESPESA_MAX_CAMPANHA":"-1",
      "COD_SIT_TOT_TURNO":"2.0",
      "DESC_SIT_TOT_TURNO":"SUPLENTE"
    },
    {
      "DATA_GERACAO":"25/11/2016",
      "HORA_GERACAO":"18:23:08",
      "ANO_ELEICAO":"2000",
      "NUM_TURNO":"1",
      "DESCRICAO_ELEICAO":"ELEICOES 2000",
      "SIGLA_UF":"BA",
      "SIGLA_UE":"39985",
      "DESCRICAO_UE":"SOBRADINHO",
      "CODIGO_CARGO":"13",
      "DESCRICAO_CARGO":"VEREADOR",
      "NOME_CANDIDATO":"JAIR FERNANDES DOS SANTOS",
      "SEQUENCIAL_CANDIDATO":"166",
      "NUMERO_CANDIDATO":"11601.0",
      "CPF_CANDIDATO":"50230468500",
      "NOME_URNA_CANDIDATO":"JAIR FERNANDES",
      "COD_SITUACAO_CANDIDATURA":"2",
      "DES_SITUACAO_CANDIDATURA":"DEFERIDO",
      "NUMERO_PARTIDO":"11",
      "SIGLA_PARTIDO":"PPB",
      "NOME_PARTIDO":"PARTIDO PROGRESSISTA BRASILEIRO",
      "CODIGO_LEGENDA":"1.0",
      "SIGLA_LEGENDA":"#NE#",
      "COMPOSICAO_LEGENDA":"PPB / PRP / PMN / PSB ",
      "NOME_LEGENDA":"UNINDO FORÇAS",
      "CODIGO_OCUPACAO":"511",
      "DESCRICAO_OCUPACAO":"CABELEIREIRO, BARBEIRO, MANICURE, MAQUILADOR, ESTETICISTA E MASSAGISTA",
      "DATA_NASCIMENTO":"11091969.0",
      "NUM_TITULO_ELEITORAL_CANDIDATO":"054934620515",
      "IDADE_DATA_ELEICAO":"-1",
      "CODIGO_SEXO":"2",
      "DESCRICAO_SEXO":"MASCULINO",
      "COD_GRAU_INSTRUCAO":"6",
      "DESCRICAO_GRAU_INSTRUCAO":"2º GRAU COMPLETO",
      "CODIGO_ESTADO_CIVIL":"3",
      "DESCRICAO_ESTADO_CIVIL":"CASADO(A)",
      "CODIGO_NACIONALIDADE":"1",
      "DESCRICAO_NACIONALIDADE":"BRASILEIRA",
      "SIGLA_UF_NASCIMENTO":"BA",
      "CODIGO_MUNICIPIO_NASCIMENTO":"-1",
      "NOME_MUNICIPIO_NASCIMENTO":"JUAZEIRO",
      "DESPESA_MAX_CAMPANHA":"-1",
      "COD_SIT_TOT_TURNO":"2.0",
      "DESC_SIT_TOT_TURNO":"SUPLENTE"
    },
    {
      "DATA_GERACAO":"25/11/2016",
      "HORA_GERACAO":"18:23:08",
      "ANO_ELEICAO":"2000",
      "NUM_TURNO":"1",
      "DESCRICAO_ELEICAO":"ELEICOES 2000",
      "SIGLA_UF":"BA",
      "SIGLA_UE":"39985",
      "DESCRICAO_UE":"SOBRADINHO",
      "CODIGO_CARGO":"13",
      "DESCRICAO_CARGO":"VEREADOR",
      "NOME_CANDIDATO":"GILBERTO NERES DA SILVA",
      "SEQUENCIAL_CANDIDATO":"187",
      "NUMERO_CANDIDATO":"11633.0",
      "CPF_CANDIDATO":"33539219587",
      "NOME_URNA_CANDIDATO":"GILBERTO DE NOU",
      "COD_SITUACAO_CANDIDATURA":"2",
      "DES_SITUACAO_CANDIDATURA":"DEFERIDO",
      "NUMERO_PARTIDO":"11",
      "SIGLA_PARTIDO":"PPB",
      "NOME_PARTIDO":"PARTIDO PROGRESSISTA BRASILEIRO",
      "CODIGO_LEGENDA":"1.0",
      "SIGLA_LEGENDA":"#NE#",
      "COMPOSICAO_LEGENDA":"PPB / PRP / PMN / PSB ",
      "NOME_LEGENDA":"UNINDO FORÇAS",
      "CODIGO_OCUPACAO":"601",
      "DESCRICAO_OCUPACAO":"TRABALHADOR AGRÍCOLA",
      "DATA_NASCIMENTO":"5091964.0",
      "NUM_TITULO_ELEITORAL_CANDIDATO":"020624310507",
      "IDADE_DATA_ELEICAO":"-1",
      "CODIGO_SEXO":"2",
      "DESCRICAO_SEXO":"MASCULINO",
      "COD_GRAU_INSTRUCAO":"4",
      "DESCRICAO_GRAU_INSTRUCAO":"1º GRAU COMPLETO",
      "CODIGO_ESTADO_CIVIL":"3",
      "DESCRICAO_ESTADO_CIVIL":"CASADO(A)",
      "CODIGO_NACIONALIDADE":"1",
      "DESCRICAO_NACIONALIDADE":"BRASILEIRA",
      "SIGLA_UF_NASCIMENTO":"BA",
      "CODIGO_MUNICIPIO_NASCIMENTO":"-1",
      "NOME_MUNICIPIO_NASCIMENTO":"SENTO SÉ",
      "DESPESA_MAX_CAMPANHA":"-1",
      "COD_SIT_TOT_TURNO":"2.0",
      "DESC_SIT_TOT_TURNO":"SUPLENTE"
    },
    {
      "DATA_GERACAO":"25/11/2016",
      "HORA_GERACAO":"18:23:08",
      "ANO_ELEICAO":"2000",
      "NUM_TURNO":"1",
      "DESCRICAO_ELEICAO":"ELEICOES 2000",
      "SIGLA_UF":"BA",
      "SIGLA_UE":"39985",
      "DESCRICAO_UE":"SOBRADINHO",
      "CODIGO_CARGO":"13",
      "DESCRICAO_CARGO":"VEREADOR",
      "NOME_CANDIDATO":"JOSÉ JOAQUIM DOS SANTOS",
      "SEQUENCIAL_CANDIDATO":"186",
      "NUMERO_CANDIDATO":"11666.0",
      "CPF_CANDIDATO":"10929789504",
      "NOME_URNA_CANDIDATO":"JOSÉ BARBEIRO",
      "COD_SITUACAO_CANDIDATURA":"2",
      "DES_SITUACAO_CANDIDATURA":"DEFERIDO",
      "NUMERO_PARTIDO":"11",
      "SIGLA_PARTIDO":"PPB",
      "NOME_PARTIDO":"PARTIDO PROGRESSISTA BRASILEIRO",
      "CODIGO_LEGENDA":"1.0",
      "SIGLA_LEGENDA":"#NE#",
      "COMPOSICAO_LEGENDA":"PPB / PRP / PMN / PSB ",
      "NOME_LEGENDA":"UNINDO FORÇAS",
      "CODIGO_OCUPACAO":"511",
      "DESCRICAO_OCUPACAO":"CABELEIREIRO, BARBEIRO, MANICURE, MAQUILADOR, ESTETICISTA E MASSAGISTA",
      "DATA_NASCIMENTO":"26011940.0",
      "NUM_TITULO_ELEITORAL_CANDIDATO":"025897240515",
      "IDADE_DATA_ELEICAO":"-1",
      "CODIGO_SEXO":"2",
      "DESCRICAO_SEXO":"MASCULINO",
      "COD_GRAU_INSTRUCAO":"5",
      "DESCRICAO_GRAU_INSTRUCAO":"2º GRAU INCOMPLETO",
      "CODIGO_ESTADO_CIVIL":"3",
      "DESCRICAO_ESTADO_CIVIL":"CASADO(A)",
      "CODIGO_NACIONALIDADE":"1",
      "DESCRICAO_NACIONALIDADE":"BRASILEIRA",
      "SIGLA_UF_NASCIMENTO":"PE",
      "CODIGO_MUNICIPIO_NASCIMENTO":"-1",
      "NOME_MUNICIPIO_NASCIMENTO":"SERRA TALHADA",
      "DESPESA_MAX_CAMPANHA":"-1",
      "COD_SIT_TOT_TURNO":"2.0",
      "DESC_SIT_TOT_TURNO":"SUPLENTE"
    },
    {
      "DATA_GERACAO":"25/11/2016",
      "HORA_GERACAO":"18:23:08",
      "ANO_ELEICAO":"2000",
      "NUM_TURNO":"1",
      "DESCRICAO_ELEICAO":"ELEICOES 2000",
      "SIGLA_UF":"BA",
      "SIGLA_UE":"39985",
      "DESCRICAO_UE":"SOBRADINHO",
      "CODIGO_CARGO":"13",
      "DESCRICAO_CARGO":"VEREADOR",
      "NOME_CANDIDATO":"ERIVALDO DE OLIVEIRA NOGUEIRA",
      "SEQUENCIAL_CANDIDATO":"264",
      "NUMERO_CANDIDATO":"12111.0",
      "CPF_CANDIDATO":"43470602468",
      "NOME_URNA_CANDIDATO":"BADU",
      "COD_SITUACAO_CANDIDATURA":"2",
      "DES_SITUACAO_CANDIDATURA":"DEFERIDO",
      "NUMERO_PARTIDO":"12",
      "SIGLA_PARTIDO":"PDT",
      "NOME_PARTIDO":"PARTIDO DEMOCRÁTICO TRABALHISTA",
      "CODIGO_LEGENDA":"4.0",
      "SIGLA_LEGENDA":"#NE#",
      "COMPOSICAO_LEGENDA":"PDT / PT / PCB / PC do B / PPS / PST / PSC ",
      "NOME_LEGENDA":"SOBRADINHO DE TODOS NÓS",
      "CODIGO_OCUPACAO":"999",
      "DESCRICAO_OCUPACAO":"OUTROS",
      "DATA_NASCIMENTO":"25121963.0",
      "NUM_TITULO_ELEITORAL_CANDIDATO":"022641620892",
      "IDADE_DATA_ELEICAO":"-1",
      "CODIGO_SEXO":"2",
      "DESCRICAO_SEXO":"MASCULINO",
      "COD_GRAU_INSTRUCAO":"5",
      "DESCRICAO_GRAU_INSTRUCAO":"2º GRAU INCOMPLETO",
      "CODIGO_ESTADO_CIVIL":"3",
      "DESCRICAO_ESTADO_CIVIL":"CASADO(A)",
      "CODIGO_NACIONALIDADE":"1",
      "DESCRICAO_NACIONALIDADE":"BRASILEIRA",
      "SIGLA_UF_NASCIMENTO":"BA",
      "CODIGO_MUNICIPIO_NASCIMENTO":"-1",
      "NOME_MUNICIPIO_NASCIMENTO":"CASA NOVA",
      "DESPESA_MAX_CAMPANHA":"-1",
      "COD_SIT_TOT_TURNO":"4.0",
      "DESC_SIT_TOT_TURNO":"NÃO ELEITO"
    },
    {
      "DATA_GERACAO":"25/11/2016",
      "HORA_GERACAO":"18:23:08",
      "ANO_ELEICAO":"2000",
      "NUM_TURNO":"1",
      "DESCRICAO_ELEICAO":"ELEICOES 2000",
      "SIGLA_UF":"BA",
      "SIGLA_UE":"39985",
      "DESCRICAO_UE":"SOBRADINHO",
      "CODIGO_CARGO":"13",
      "DESCRICAO_CARGO":"VEREADOR",
      "NOME_CANDIDATO":"TEREZINHA RODRIGUES BARBOSA",
      "SEQUENCIAL_CANDIDATO":"262",
      "NUMERO_CANDIDATO":"12123.0",
      "CPF_CANDIDATO":"57711763549",
      "NOME_URNA_CANDIDATO":"TEREZINHA",
      "COD_SITUACAO_CANDIDATURA":"3",
      "DES_SITUACAO_CANDIDATURA":"INDEFERIDO",
      "NUMERO_PARTIDO":"12",
      "SIGLA_PARTIDO":"PDT",
      "NOME_PARTIDO":"PARTIDO DEMOCRÁTICO TRABALHISTA",
      "CODIGO_LEGENDA":"4.0",
      "SIGLA_LEGENDA":"#NE#",
      "COMPOSICAO_LEGENDA":"PDT / PT / PCB / PC do B / PPS / PST / PSC ",
      "NOME_LEGENDA":"SOBRADINHO DE TODOS NÓS",
      "CODIGO_OCUPACAO":"999",
      "DESCRICAO_OCUPACAO":"OUTROS",
      "DATA_NASCIMENTO":"28091942.0",
      "NUM_TITULO_ELEITORAL_CANDIDATO":"022784260582",
      "IDADE_DATA_ELEICAO":"-1",
      "CODIGO_SEXO":"4",
      "DESCRICAO_SEXO":"FEMININO",
      "COD_GRAU_INSTRUCAO":"2",
      "DESCRICAO_GRAU_INSTRUCAO":"LÊ E ESCREVE",
      "CODIGO_ESTADO_CIVIL":"3",
      "DESCRICAO_ESTADO_CIVIL":"CASADO(A)",
      "CODIGO_NACIONALIDADE":"1",
      "DESCRICAO_NACIONALIDADE":"BRASILEIRA",
      "SIGLA_UF_NASCIMENTO":"BA",
      "CODIGO_MUNICIPIO_NASCIMENTO":"-1",
      "NOME_MUNICIPIO_NASCIMENTO":"CASA NOVA",
      "DESPESA_MAX_CAMPANHA":"-1",
      "COD_SIT_TOT_TURNO":"",
      "DESC_SIT_TOT_TURNO":""
    }
  ]
}
